{
    "fields": [
        {
            "default": "false",
            "name": "flag",
            "type": "bool"
        },
        {
            "default": "true",
            "name": "flag2True",
            "type": "bool"
        }
    ]
}